<mxfile host="65bd71144e">
    <diagram id="6pQN_quTQNs3JuP9I3BR" name="第 1 页">
        <mxGraphModel dx="1189" dy="696" grid="1" gridSize="10" guides="1" tooltips="1" connect="1" arrows="1" fold="1" page="1" pageScale="1" pageWidth="827" pageHeight="1169" math="0" shadow="0">
            <root>
                <mxCell id="0"/>
                <mxCell id="1" parent="0"/>
                <mxCell id="8" value="跳转" style="edgeStyle=none;html=1;exitX=1;exitY=0.5;exitDx=0;exitDy=0;entryX=0;entryY=0.5;entryDx=0;entryDy=0;" edge="1" parent="1" source="2" target="7">
                    <mxGeometry relative="1" as="geometry"/>
                </mxCell>
                <mxCell id="2" value="" style="rounded=0;whiteSpace=wrap;html=1;" vertex="1" parent="1">
                    <mxGeometry x="70" y="130" width="320" height="200" as="geometry"/>
                </mxCell>
                <mxCell id="3" value="login page" style="text;html=1;strokeColor=none;fillColor=none;align=center;verticalAlign=middle;whiteSpace=wrap;rounded=0;" vertex="1" parent="1">
                    <mxGeometry x="80" y="90" width="60" height="30" as="geometry"/>
                </mxCell>
                <mxCell id="4" value="" style="rounded=0;whiteSpace=wrap;html=1;" vertex="1" parent="1">
                    <mxGeometry x="150" y="160" width="160" height="40" as="geometry"/>
                </mxCell>
                <mxCell id="5" value="" style="rounded=0;whiteSpace=wrap;html=1;" vertex="1" parent="1">
                    <mxGeometry x="150" y="220" width="160" height="40" as="geometry"/>
                </mxCell>
                <mxCell id="6" value="登录" style="rounded=1;whiteSpace=wrap;html=1;" vertex="1" parent="1">
                    <mxGeometry x="190" y="270" width="80" height="40" as="geometry"/>
                </mxCell>
                <mxCell id="14" style="edgeStyle=orthogonalEdgeStyle;html=1;exitX=0.5;exitY=1;exitDx=0;exitDy=0;entryX=1;entryY=0.5;entryDx=0;entryDy=0;" edge="1" parent="1" source="7" target="13">
                    <mxGeometry relative="1" as="geometry"/>
                </mxCell>
                <mxCell id="15" value="跳转前台: 效果预览" style="edgeLabel;html=1;align=center;verticalAlign=middle;resizable=0;points=[];" vertex="1" connectable="0" parent="14">
                    <mxGeometry x="0.3729" y="-2" relative="1" as="geometry">
                        <mxPoint as="offset"/>
                    </mxGeometry>
                </mxCell>
                <mxCell id="7" value="&amp;nbsp; &amp;nbsp; &amp;nbsp; &amp;nbsp; &amp;nbsp; &amp;nbsp; &amp;nbsp; &amp;nbsp; &amp;nbsp; &amp;nbsp; &amp;nbsp; &amp;nbsp; &amp;nbsp; &amp;nbsp; &amp;nbsp; &amp;nbsp; &amp;nbsp; &amp;nbsp;内容页面(路由视图）" style="rounded=0;whiteSpace=wrap;html=1;" vertex="1" parent="1">
                    <mxGeometry x="450" y="130" width="330" height="200" as="geometry"/>
                </mxCell>
                <mxCell id="9" value="顶部导航" style="rounded=0;whiteSpace=wrap;html=1;" vertex="1" parent="1">
                    <mxGeometry x="450" y="130" width="330" height="40" as="geometry"/>
                </mxCell>
                <mxCell id="10" value="侧边栏菜单" style="rounded=0;whiteSpace=wrap;html=1;" vertex="1" parent="1">
                    <mxGeometry x="450" y="170" width="120" height="160" as="geometry"/>
                </mxCell>
                <mxCell id="11" value="菜单香" style="rounded=0;whiteSpace=wrap;html=1;" vertex="1" parent="1">
                    <mxGeometry x="460" y="180" width="100" height="30" as="geometry"/>
                </mxCell>
                <mxCell id="12" value="菜单香" style="rounded=0;whiteSpace=wrap;html=1;" vertex="1" parent="1">
                    <mxGeometry x="460" y="210" width="100" height="30" as="geometry"/>
                </mxCell>
                <mxCell id="20" style="edgeStyle=orthogonalEdgeStyle;html=1;exitX=0.5;exitY=1;exitDx=0;exitDy=0;entryX=0.5;entryY=0;entryDx=0;entryDy=0;" edge="1" parent="1" source="13" target="19">
                    <mxGeometry relative="1" as="geometry"/>
                </mxCell>
                <mxCell id="21" value="查看文章详情" style="edgeLabel;html=1;align=center;verticalAlign=middle;resizable=0;points=[];" vertex="1" connectable="0" parent="20">
                    <mxGeometry x="-0.3096" y="-2" relative="1" as="geometry">
                        <mxPoint as="offset"/>
                    </mxGeometry>
                </mxCell>
                <mxCell id="13" value="" style="rounded=0;whiteSpace=wrap;html=1;" vertex="1" parent="1">
                    <mxGeometry x="70" y="380" width="320" height="230" as="geometry"/>
                </mxCell>
                <mxCell id="16" value="" style="rounded=0;whiteSpace=wrap;html=1;" vertex="1" parent="1">
                    <mxGeometry x="100" y="440" width="250" height="40" as="geometry"/>
                </mxCell>
                <mxCell id="17" value="" style="rounded=0;whiteSpace=wrap;html=1;" vertex="1" parent="1">
                    <mxGeometry x="100" y="490" width="250" height="40" as="geometry"/>
                </mxCell>
                <mxCell id="18" value="" style="rounded=0;whiteSpace=wrap;html=1;" vertex="1" parent="1">
                    <mxGeometry x="100" y="544.5" width="250" height="40" as="geometry"/>
                </mxCell>
                <mxCell id="19" value="Markdown 文章渲染页面(页面路由)" style="rounded=0;whiteSpace=wrap;html=1;" vertex="1" parent="1">
                    <mxGeometry x="72.5" y="700" width="315" height="190" as="geometry"/>
                </mxCell>
                <mxCell id="22" value="顶部导航" style="rounded=0;whiteSpace=wrap;html=1;" vertex="1" parent="1">
                    <mxGeometry x="70" y="380" width="320" height="40" as="geometry"/>
                </mxCell>
                <mxCell id="23" value="顶部导航" style="rounded=0;whiteSpace=wrap;html=1;" vertex="1" parent="1">
                    <mxGeometry x="70" y="700" width="320" height="40" as="geometry"/>
                </mxCell>
                <mxCell id="25" value="" style="rounded=0;whiteSpace=wrap;html=1;" vertex="1" parent="1">
                    <mxGeometry x="130" y="1010" width="480" height="60" as="geometry"/>
                </mxCell>
                <mxCell id="26" value="" style="rounded=0;whiteSpace=wrap;html=1;" vertex="1" parent="1">
                    <mxGeometry x="130" y="1090" width="180" height="170" as="geometry"/>
                </mxCell>
                <mxCell id="31" style="edgeStyle=orthogonalEdgeStyle;html=1;exitX=0.25;exitY=1;exitDx=0;exitDy=0;entryX=0.5;entryY=0;entryDx=0;entryDy=0;" edge="1" parent="1" source="29" target="30">
                    <mxGeometry relative="1" as="geometry"/>
                </mxCell>
                <mxCell id="34" value="/login" style="edgeLabel;html=1;align=center;verticalAlign=middle;resizable=0;points=[];" vertex="1" connectable="0" parent="31">
                    <mxGeometry x="-0.04" y="1" relative="1" as="geometry">
                        <mxPoint x="1" as="offset"/>
                    </mxGeometry>
                </mxCell>
                <mxCell id="29" value="&lt;span style=&quot;box-sizing: border-box; color: rgba(235, 235, 245, 0.6); font-family: ui-monospace, Menlo, Monaco, Consolas, &amp;quot;Liberation Mono&amp;quot;, &amp;quot;Courier New&amp;quot;, monospace; font-size: 14px; font-style: normal; font-variant-ligatures: normal; font-variant-caps: normal; font-weight: 400; letter-spacing: normal; orphans: 2; text-align: left; text-indent: 0px; text-transform: none; widows: 2; word-spacing: 0px; -webkit-text-stroke-width: 0px; background-color: rgb(22, 22, 24); text-decoration-thickness: initial; text-decoration-style: initial; text-decoration-color: initial;&quot; class=&quot;line&quot;&gt;&lt;span style=&quot;box-sizing: border-box; color: var(--shiki-dark, inherit); --shiki-dark: #7F848E; --shiki-light: #6A737D; --shiki-dark-font-style: italic; --shiki-light-font-style: inherit;&quot;&gt;&amp;lt;!-- App.vue --&amp;gt;&amp;nbsp;&lt;/span&gt;&lt;/span&gt;&lt;span style=&quot;color: rgba(235, 235, 245, 0.6); font-family: ui-monospace, Menlo, Monaco, Consolas, &amp;quot;Liberation Mono&amp;quot;, &amp;quot;Courier New&amp;quot;, monospace; font-size: 14px; font-style: normal; font-variant-ligatures: normal; font-variant-caps: normal; font-weight: 400; letter-spacing: normal; orphans: 2; text-align: left; text-indent: 0px; text-transform: none; widows: 2; word-spacing: 0px; -webkit-text-stroke-width: 0px; background-color: rgb(22, 22, 24); text-decoration-thickness: initial; text-decoration-style: initial; text-decoration-color: initial; float: none; display: inline !important;&quot;&gt;&lt;br&gt;&lt;/span&gt;&lt;span style=&quot;box-sizing: border-box; color: rgba(235, 235, 245, 0.6); font-family: ui-monospace, Menlo, Monaco, Consolas, &amp;quot;Liberation Mono&amp;quot;, &amp;quot;Courier New&amp;quot;, monospace; font-size: 14px; font-style: normal; font-variant-ligatures: normal; font-variant-caps: normal; font-weight: 400; letter-spacing: normal; orphans: 2; text-align: left; text-indent: 0px; text-transform: none; widows: 2; word-spacing: 0px; -webkit-text-stroke-width: 0px; background-color: rgb(22, 22, 24); text-decoration-thickness: initial; text-decoration-style: initial; text-decoration-color: initial;&quot; class=&quot;line&quot;&gt;&lt;span style=&quot;box-sizing: border-box; color: var(--shiki-dark, inherit); --shiki-dark: #ABB2BF; --shiki-light: #24292E;&quot;&gt;&amp;lt;&lt;/span&gt;&lt;span style=&quot;box-sizing: border-box; color: var(--shiki-dark, inherit); --shiki-dark: #E06C75; --shiki-light: #22863A;&quot;&gt;template&lt;/span&gt;&lt;span style=&quot;box-sizing: border-box; color: var(--shiki-dark, inherit); --shiki-dark: #ABB2BF; --shiki-light: #24292E;&quot;&gt;&amp;gt;&lt;/span&gt;&lt;/span&gt;&lt;span style=&quot;color: rgba(235, 235, 245, 0.6); font-family: ui-monospace, Menlo, Monaco, Consolas, &amp;quot;Liberation Mono&amp;quot;, &amp;quot;Courier New&amp;quot;, monospace; font-size: 14px; font-style: normal; font-variant-ligatures: normal; font-variant-caps: normal; font-weight: 400; letter-spacing: normal; orphans: 2; text-align: left; text-indent: 0px; text-transform: none; widows: 2; word-spacing: 0px; -webkit-text-stroke-width: 0px; background-color: rgb(22, 22, 24); text-decoration-thickness: initial; text-decoration-style: initial; text-decoration-color: initial; float: none; display: inline !important;&quot;&gt;&lt;br&gt;&lt;/span&gt;&lt;span style=&quot;box-sizing: border-box; color: rgba(235, 235, 245, 0.6); font-family: ui-monospace, Menlo, Monaco, Consolas, &amp;quot;Liberation Mono&amp;quot;, &amp;quot;Courier New&amp;quot;, monospace; font-size: 14px; font-style: normal; font-variant-ligatures: normal; font-variant-caps: normal; font-weight: 400; letter-spacing: normal; orphans: 2; text-align: left; text-indent: 0px; text-transform: none; widows: 2; word-spacing: 0px; -webkit-text-stroke-width: 0px; background-color: rgb(22, 22, 24); text-decoration-thickness: initial; text-decoration-style: initial; text-decoration-color: initial;&quot; class=&quot;line&quot;&gt;&lt;span style=&quot;box-sizing: border-box; color: var(--shiki-dark, inherit); --shiki-dark: #ABB2BF; --shiki-light: #24292E;&quot;&gt;&amp;nbsp; &amp;nbsp; &amp;lt;&lt;/span&gt;&lt;span style=&quot;box-sizing: border-box; color: var(--shiki-dark, inherit); --shiki-dark: #E06C75; --shiki-light: #22863A;&quot;&gt;router-view&lt;/span&gt;&lt;span style=&quot;box-sizing: border-box; color: var(--shiki-dark, inherit); --shiki-dark: #ABB2BF; --shiki-light: #24292E;&quot;&gt; /&amp;gt;&lt;/span&gt;&lt;/span&gt;&lt;span style=&quot;color: rgba(235, 235, 245, 0.6); font-family: ui-monospace, Menlo, Monaco, Consolas, &amp;quot;Liberation Mono&amp;quot;, &amp;quot;Courier New&amp;quot;, monospace; font-size: 14px; font-style: normal; font-variant-ligatures: normal; font-variant-caps: normal; font-weight: 400; letter-spacing: normal; orphans: 2; text-align: left; text-indent: 0px; text-transform: none; widows: 2; word-spacing: 0px; -webkit-text-stroke-width: 0px; background-color: rgb(22, 22, 24); text-decoration-thickness: initial; text-decoration-style: initial; text-decoration-color: initial; float: none; display: inline !important;&quot;&gt;&lt;br&gt;&lt;/span&gt;&lt;span style=&quot;box-sizing: border-box; color: rgba(235, 235, 245, 0.6); font-family: ui-monospace, Menlo, Monaco, Consolas, &amp;quot;Liberation Mono&amp;quot;, &amp;quot;Courier New&amp;quot;, monospace; font-size: 14px; font-style: normal; font-variant-ligatures: normal; font-variant-caps: normal; font-weight: 400; letter-spacing: normal; orphans: 2; text-align: left; text-indent: 0px; text-transform: none; widows: 2; word-spacing: 0px; -webkit-text-stroke-width: 0px; background-color: rgb(22, 22, 24); text-decoration-thickness: initial; text-decoration-style: initial; text-decoration-color: initial;&quot; class=&quot;line&quot;&gt;&lt;span style=&quot;box-sizing: border-box; color: var(--shiki-dark, inherit); --shiki-dark: #ABB2BF; --shiki-light: #24292E;&quot;&gt;&amp;lt;/&lt;/span&gt;&lt;span style=&quot;box-sizing: border-box; color: var(--shiki-dark, inherit); --shiki-dark: #E06C75; --shiki-light: #22863A;&quot;&gt;template&lt;/span&gt;&lt;span style=&quot;box-sizing: border-box; color: var(--shiki-dark, inherit); --shiki-dark: #ABB2BF; --shiki-light: #24292E;&quot;&gt;&amp;gt;&lt;/span&gt;&lt;/span&gt;" style="text;whiteSpace=wrap;html=1;" vertex="1" parent="1">
                    <mxGeometry x="50" y="1330" width="250" height="80" as="geometry"/>
                </mxCell>
                <mxCell id="30" value="login page" style="rounded=0;whiteSpace=wrap;html=1;" vertex="1" parent="1">
                    <mxGeometry x="50" y="1470" width="120" height="60" as="geometry"/>
                </mxCell>
                <mxCell id="35" style="edgeStyle=orthogonalEdgeStyle;html=1;exitX=0.25;exitY=1;exitDx=0;exitDy=0;entryX=0.308;entryY=0.003;entryDx=0;entryDy=0;entryPerimeter=0;" edge="1" parent="1" source="32" target="33">
                    <mxGeometry relative="1" as="geometry"/>
                </mxCell>
                <mxCell id="36" value="/backend" style="edgeLabel;html=1;align=center;verticalAlign=middle;resizable=0;points=[];" vertex="1" connectable="0" parent="35">
                    <mxGeometry x="0.0386" y="1" relative="1" as="geometry">
                        <mxPoint y="-1" as="offset"/>
                    </mxGeometry>
                </mxCell>
                <mxCell id="32" value="&lt;span style=&quot;box-sizing: border-box; color: rgba(235, 235, 245, 0.6); font-family: ui-monospace, Menlo, Monaco, Consolas, &amp;quot;Liberation Mono&amp;quot;, &amp;quot;Courier New&amp;quot;, monospace; font-size: 14px; font-style: normal; font-variant-ligatures: normal; font-variant-caps: normal; font-weight: 400; letter-spacing: normal; orphans: 2; text-align: left; text-indent: 0px; text-transform: none; widows: 2; word-spacing: 0px; -webkit-text-stroke-width: 0px; background-color: rgb(22, 22, 24); text-decoration-thickness: initial; text-decoration-style: initial; text-decoration-color: initial;&quot; class=&quot;line&quot;&gt;&lt;span style=&quot;box-sizing: border-box; color: var(--shiki-dark, inherit); --shiki-dark: #7F848E; --shiki-light: #6A737D; --shiki-dark-font-style: italic; --shiki-light-font-style: inherit;&quot;&gt;&amp;lt;!-- App.vue --&amp;gt;&amp;nbsp;&lt;/span&gt;&lt;/span&gt;&lt;span style=&quot;color: rgba(235, 235, 245, 0.6); font-family: ui-monospace, Menlo, Monaco, Consolas, &amp;quot;Liberation Mono&amp;quot;, &amp;quot;Courier New&amp;quot;, monospace; font-size: 14px; font-style: normal; font-variant-ligatures: normal; font-variant-caps: normal; font-weight: 400; letter-spacing: normal; orphans: 2; text-align: left; text-indent: 0px; text-transform: none; widows: 2; word-spacing: 0px; -webkit-text-stroke-width: 0px; background-color: rgb(22, 22, 24); text-decoration-thickness: initial; text-decoration-style: initial; text-decoration-color: initial; float: none; display: inline !important;&quot;&gt;&lt;br&gt;&lt;/span&gt;&lt;span style=&quot;box-sizing: border-box; color: rgba(235, 235, 245, 0.6); font-family: ui-monospace, Menlo, Monaco, Consolas, &amp;quot;Liberation Mono&amp;quot;, &amp;quot;Courier New&amp;quot;, monospace; font-size: 14px; font-style: normal; font-variant-ligatures: normal; font-variant-caps: normal; font-weight: 400; letter-spacing: normal; orphans: 2; text-align: left; text-indent: 0px; text-transform: none; widows: 2; word-spacing: 0px; -webkit-text-stroke-width: 0px; background-color: rgb(22, 22, 24); text-decoration-thickness: initial; text-decoration-style: initial; text-decoration-color: initial;&quot; class=&quot;line&quot;&gt;&lt;span style=&quot;box-sizing: border-box; color: var(--shiki-dark, inherit); --shiki-dark: #ABB2BF; --shiki-light: #24292E;&quot;&gt;&amp;lt;&lt;/span&gt;&lt;span style=&quot;box-sizing: border-box; color: var(--shiki-dark, inherit); --shiki-dark: #E06C75; --shiki-light: #22863A;&quot;&gt;template&lt;/span&gt;&lt;span style=&quot;box-sizing: border-box; color: var(--shiki-dark, inherit); --shiki-dark: #ABB2BF; --shiki-light: #24292E;&quot;&gt;&amp;gt;&lt;/span&gt;&lt;/span&gt;&lt;span style=&quot;color: rgba(235, 235, 245, 0.6); font-family: ui-monospace, Menlo, Monaco, Consolas, &amp;quot;Liberation Mono&amp;quot;, &amp;quot;Courier New&amp;quot;, monospace; font-size: 14px; font-style: normal; font-variant-ligatures: normal; font-variant-caps: normal; font-weight: 400; letter-spacing: normal; orphans: 2; text-align: left; text-indent: 0px; text-transform: none; widows: 2; word-spacing: 0px; -webkit-text-stroke-width: 0px; background-color: rgb(22, 22, 24); text-decoration-thickness: initial; text-decoration-style: initial; text-decoration-color: initial; float: none; display: inline !important;&quot;&gt;&lt;br&gt;&lt;/span&gt;&lt;span style=&quot;box-sizing: border-box; color: rgba(235, 235, 245, 0.6); font-family: ui-monospace, Menlo, Monaco, Consolas, &amp;quot;Liberation Mono&amp;quot;, &amp;quot;Courier New&amp;quot;, monospace; font-size: 14px; font-style: normal; font-variant-ligatures: normal; font-variant-caps: normal; font-weight: 400; letter-spacing: normal; orphans: 2; text-align: left; text-indent: 0px; text-transform: none; widows: 2; word-spacing: 0px; -webkit-text-stroke-width: 0px; background-color: rgb(22, 22, 24); text-decoration-thickness: initial; text-decoration-style: initial; text-decoration-color: initial;&quot; class=&quot;line&quot;&gt;&lt;span style=&quot;box-sizing: border-box; color: var(--shiki-dark, inherit); --shiki-dark: #ABB2BF; --shiki-light: #24292E;&quot;&gt;&amp;nbsp; &amp;nbsp; &amp;lt;&lt;/span&gt;&lt;span style=&quot;box-sizing: border-box; color: var(--shiki-dark, inherit); --shiki-dark: #E06C75; --shiki-light: #22863A;&quot;&gt;router-view&lt;/span&gt;&lt;span style=&quot;box-sizing: border-box; color: var(--shiki-dark, inherit); --shiki-dark: #ABB2BF; --shiki-light: #24292E;&quot;&gt; /&amp;gt;&lt;/span&gt;&lt;/span&gt;&lt;span style=&quot;color: rgba(235, 235, 245, 0.6); font-family: ui-monospace, Menlo, Monaco, Consolas, &amp;quot;Liberation Mono&amp;quot;, &amp;quot;Courier New&amp;quot;, monospace; font-size: 14px; font-style: normal; font-variant-ligatures: normal; font-variant-caps: normal; font-weight: 400; letter-spacing: normal; orphans: 2; text-align: left; text-indent: 0px; text-transform: none; widows: 2; word-spacing: 0px; -webkit-text-stroke-width: 0px; background-color: rgb(22, 22, 24); text-decoration-thickness: initial; text-decoration-style: initial; text-decoration-color: initial; float: none; display: inline !important;&quot;&gt;&lt;br&gt;&lt;/span&gt;&lt;span style=&quot;box-sizing: border-box; color: rgba(235, 235, 245, 0.6); font-family: ui-monospace, Menlo, Monaco, Consolas, &amp;quot;Liberation Mono&amp;quot;, &amp;quot;Courier New&amp;quot;, monospace; font-size: 14px; font-style: normal; font-variant-ligatures: normal; font-variant-caps: normal; font-weight: 400; letter-spacing: normal; orphans: 2; text-align: left; text-indent: 0px; text-transform: none; widows: 2; word-spacing: 0px; -webkit-text-stroke-width: 0px; background-color: rgb(22, 22, 24); text-decoration-thickness: initial; text-decoration-style: initial; text-decoration-color: initial;&quot; class=&quot;line&quot;&gt;&lt;span style=&quot;box-sizing: border-box; color: var(--shiki-dark, inherit); --shiki-dark: #ABB2BF; --shiki-light: #24292E;&quot;&gt;&amp;lt;/&lt;/span&gt;&lt;span style=&quot;box-sizing: border-box; color: var(--shiki-dark, inherit); --shiki-dark: #E06C75; --shiki-light: #22863A;&quot;&gt;template&lt;/span&gt;&lt;span style=&quot;box-sizing: border-box; color: var(--shiki-dark, inherit); --shiki-dark: #ABB2BF; --shiki-light: #24292E;&quot;&gt;&amp;gt;&lt;/span&gt;&lt;/span&gt;" style="text;whiteSpace=wrap;html=1;" vertex="1" parent="1">
                    <mxGeometry x="280" y="1330" width="250" height="80" as="geometry"/>
                </mxCell>
                <mxCell id="39" value="/backend/blogs" style="edgeStyle=orthogonalEdgeStyle;html=1;exitX=0.5;exitY=1;exitDx=0;exitDy=0;entryX=0.5;entryY=0;entryDx=0;entryDy=0;" edge="1" parent="1" source="33" target="38">
                    <mxGeometry relative="1" as="geometry"/>
                </mxCell>
                <mxCell id="33" value="Backend Layout Component" style="rounded=0;whiteSpace=wrap;html=1;" vertex="1" parent="1">
                    <mxGeometry x="275" y="1470" width="210" height="60" as="geometry"/>
                </mxCell>
                <mxCell id="38" value="文章管理" style="rounded=0;whiteSpace=wrap;html=1;" vertex="1" parent="1">
                    <mxGeometry x="275" y="1590" width="210" height="60" as="geometry"/>
                </mxCell>
                <mxCell id="40" value="page" style="rounded=0;whiteSpace=wrap;html=1;" vertex="1" parent="1">
                    <mxGeometry x="330" y="1090" width="280" height="170" as="geometry"/>
                </mxCell>
                <mxCell id="41" value="&lt;span style=&quot;box-sizing: border-box; color: rgba(235, 235, 245, 0.6); font-family: ui-monospace, Menlo, Monaco, Consolas, &amp;quot;Liberation Mono&amp;quot;, &amp;quot;Courier New&amp;quot;, monospace; font-size: 14px; font-style: normal; font-variant-ligatures: normal; font-variant-caps: normal; font-weight: 400; letter-spacing: normal; orphans: 2; text-align: left; text-indent: 0px; text-transform: none; widows: 2; word-spacing: 0px; -webkit-text-stroke-width: 0px; background-color: rgb(22, 22, 24); text-decoration-thickness: initial; text-decoration-style: initial; text-decoration-color: initial;&quot; class=&quot;line&quot;&gt;&lt;span style=&quot;box-sizing: border-box; color: var(--shiki-dark, inherit); --shiki-dark: #7F848E; --shiki-light: #6A737D; --shiki-dark-font-style: italic; --shiki-light-font-style: inherit;&quot;&gt;&amp;lt;!-- BackendLayout.vue --&amp;gt;&amp;nbsp;&lt;/span&gt;&lt;/span&gt;&lt;span style=&quot;color: rgba(235, 235, 245, 0.6); font-family: ui-monospace, Menlo, Monaco, Consolas, &amp;quot;Liberation Mono&amp;quot;, &amp;quot;Courier New&amp;quot;, monospace; font-size: 14px; font-style: normal; font-variant-ligatures: normal; font-variant-caps: normal; font-weight: 400; letter-spacing: normal; orphans: 2; text-align: left; text-indent: 0px; text-transform: none; widows: 2; word-spacing: 0px; -webkit-text-stroke-width: 0px; background-color: rgb(22, 22, 24); text-decoration-thickness: initial; text-decoration-style: initial; text-decoration-color: initial; float: none; display: inline !important;&quot;&gt;&lt;br&gt;&lt;/span&gt;&lt;span style=&quot;box-sizing: border-box; color: rgba(235, 235, 245, 0.6); font-family: ui-monospace, Menlo, Monaco, Consolas, &amp;quot;Liberation Mono&amp;quot;, &amp;quot;Courier New&amp;quot;, monospace; font-size: 14px; font-style: normal; font-variant-ligatures: normal; font-variant-caps: normal; font-weight: 400; letter-spacing: normal; orphans: 2; text-align: left; text-indent: 0px; text-transform: none; widows: 2; word-spacing: 0px; -webkit-text-stroke-width: 0px; background-color: rgb(22, 22, 24); text-decoration-thickness: initial; text-decoration-style: initial; text-decoration-color: initial;&quot; class=&quot;line&quot;&gt;&lt;span style=&quot;box-sizing: border-box; color: var(--shiki-dark, inherit); --shiki-dark: #ABB2BF; --shiki-light: #24292E;&quot;&gt;&amp;lt;&lt;/span&gt;&lt;span style=&quot;box-sizing: border-box; color: var(--shiki-dark, inherit); --shiki-dark: #E06C75; --shiki-light: #22863A;&quot;&gt;template&lt;/span&gt;&lt;span style=&quot;box-sizing: border-box; color: var(--shiki-dark, inherit); --shiki-dark: #ABB2BF; --shiki-light: #24292E;&quot;&gt;&amp;gt;&lt;br&gt;&lt;/span&gt;&lt;/span&gt;&lt;span style=&quot;color: rgba(235, 235, 245, 0.6); font-family: ui-monospace, Menlo, Monaco, Consolas, &amp;quot;Liberation Mono&amp;quot;, &amp;quot;Courier New&amp;quot;, monospace; font-size: 14px; font-style: normal; font-variant-ligatures: normal; font-variant-caps: normal; font-weight: 400; letter-spacing: normal; orphans: 2; text-align: left; text-indent: 0px; text-transform: none; widows: 2; word-spacing: 0px; -webkit-text-stroke-width: 0px; background-color: rgb(22, 22, 24); text-decoration-thickness: initial; text-decoration-style: initial; text-decoration-color: initial; float: none; display: inline !important;&quot;&gt;&amp;nbsp; &amp;nbsp; 顶部导航&lt;br&gt;&amp;nbsp; &amp;nbsp; 侧边栏导航&lt;br&gt;&lt;br&gt;&amp;nbsp; &amp;nbsp; 内容页面(RouterView)&lt;br&gt;&lt;/span&gt;&lt;span style=&quot;box-sizing: border-box; color: rgba(235, 235, 245, 0.6); font-family: ui-monospace, Menlo, Monaco, Consolas, &amp;quot;Liberation Mono&amp;quot;, &amp;quot;Courier New&amp;quot;, monospace; font-size: 14px; font-style: normal; font-variant-ligatures: normal; font-variant-caps: normal; font-weight: 400; letter-spacing: normal; orphans: 2; text-align: left; text-indent: 0px; text-transform: none; widows: 2; word-spacing: 0px; -webkit-text-stroke-width: 0px; background-color: rgb(22, 22, 24); text-decoration-thickness: initial; text-decoration-style: initial; text-decoration-color: initial;&quot; class=&quot;line&quot;&gt;&lt;span style=&quot;box-sizing: border-box; color: var(--shiki-dark, inherit); --shiki-dark: #ABB2BF; --shiki-light: #24292E;&quot;&gt;&amp;nbsp; &amp;nbsp; &amp;lt;&lt;/span&gt;&lt;span style=&quot;box-sizing: border-box; color: var(--shiki-dark, inherit); --shiki-dark: #E06C75; --shiki-light: #22863A;&quot;&gt;router-view&lt;/span&gt;&lt;span style=&quot;box-sizing: border-box; color: var(--shiki-dark, inherit); --shiki-dark: #ABB2BF; --shiki-light: #24292E;&quot;&gt; /&amp;gt;&lt;/span&gt;&lt;/span&gt;&lt;span style=&quot;color: rgba(235, 235, 245, 0.6); font-family: ui-monospace, Menlo, Monaco, Consolas, &amp;quot;Liberation Mono&amp;quot;, &amp;quot;Courier New&amp;quot;, monospace; font-size: 14px; font-style: normal; font-variant-ligatures: normal; font-variant-caps: normal; font-weight: 400; letter-spacing: normal; orphans: 2; text-align: left; text-indent: 0px; text-transform: none; widows: 2; word-spacing: 0px; -webkit-text-stroke-width: 0px; background-color: rgb(22, 22, 24); text-decoration-thickness: initial; text-decoration-style: initial; text-decoration-color: initial; float: none; display: inline !important;&quot;&gt;&lt;br&gt;&lt;/span&gt;&lt;span style=&quot;box-sizing: border-box; color: rgba(235, 235, 245, 0.6); font-family: ui-monospace, Menlo, Monaco, Consolas, &amp;quot;Liberation Mono&amp;quot;, &amp;quot;Courier New&amp;quot;, monospace; font-size: 14px; font-style: normal; font-variant-ligatures: normal; font-variant-caps: normal; font-weight: 400; letter-spacing: normal; orphans: 2; text-align: left; text-indent: 0px; text-transform: none; widows: 2; word-spacing: 0px; -webkit-text-stroke-width: 0px; background-color: rgb(22, 22, 24); text-decoration-thickness: initial; text-decoration-style: initial; text-decoration-color: initial;&quot; class=&quot;line&quot;&gt;&lt;span style=&quot;box-sizing: border-box; color: var(--shiki-dark, inherit); --shiki-dark: #ABB2BF; --shiki-light: #24292E;&quot;&gt;&amp;lt;/&lt;/span&gt;&lt;span style=&quot;box-sizing: border-box; color: var(--shiki-dark, inherit); --shiki-dark: #E06C75; --shiki-light: #22863A;&quot;&gt;template&lt;/span&gt;&lt;span style=&quot;box-sizing: border-box; color: var(--shiki-dark, inherit); --shiki-dark: #ABB2BF; --shiki-light: #24292E;&quot;&gt;&amp;gt;&lt;/span&gt;&lt;/span&gt;" style="text;whiteSpace=wrap;html=1;" vertex="1" parent="1">
                    <mxGeometry x="530" y="1430" width="250" height="150" as="geometry"/>
                </mxCell>
                <mxCell id="42" value="&lt;span style=&quot;box-sizing: border-box; color: rgba(235, 235, 245, 0.6); font-family: ui-monospace, Menlo, Monaco, Consolas, &amp;quot;Liberation Mono&amp;quot;, &amp;quot;Courier New&amp;quot;, monospace; font-size: 14px; font-style: normal; font-variant-ligatures: normal; font-variant-caps: normal; font-weight: 400; letter-spacing: normal; orphans: 2; text-align: left; text-indent: 0px; text-transform: none; widows: 2; word-spacing: 0px; -webkit-text-stroke-width: 0px; background-color: rgb(22, 22, 24); text-decoration-thickness: initial; text-decoration-style: initial; text-decoration-color: initial;&quot; class=&quot;line&quot;&gt;&lt;span style=&quot;box-sizing: border-box; color: var(--shiki-dark, inherit); --shiki-dark: #7F848E; --shiki-light: #6A737D; --shiki-dark-font-style: italic; --shiki-light-font-style: inherit;&quot;&gt;&amp;lt;!-- BackendLayout.vue --&amp;gt;&amp;nbsp;&lt;/span&gt;&lt;/span&gt;&lt;span style=&quot;color: rgba(235, 235, 245, 0.6); font-family: ui-monospace, Menlo, Monaco, Consolas, &amp;quot;Liberation Mono&amp;quot;, &amp;quot;Courier New&amp;quot;, monospace; font-size: 14px; font-style: normal; font-variant-ligatures: normal; font-variant-caps: normal; font-weight: 400; letter-spacing: normal; orphans: 2; text-align: left; text-indent: 0px; text-transform: none; widows: 2; word-spacing: 0px; -webkit-text-stroke-width: 0px; background-color: rgb(22, 22, 24); text-decoration-thickness: initial; text-decoration-style: initial; text-decoration-color: initial; float: none; display: inline !important;&quot;&gt;&lt;br&gt;&lt;/span&gt;&lt;span style=&quot;box-sizing: border-box; color: rgba(235, 235, 245, 0.6); font-family: ui-monospace, Menlo, Monaco, Consolas, &amp;quot;Liberation Mono&amp;quot;, &amp;quot;Courier New&amp;quot;, monospace; font-size: 14px; font-style: normal; font-variant-ligatures: normal; font-variant-caps: normal; font-weight: 400; letter-spacing: normal; orphans: 2; text-align: left; text-indent: 0px; text-transform: none; widows: 2; word-spacing: 0px; -webkit-text-stroke-width: 0px; background-color: rgb(22, 22, 24); text-decoration-thickness: initial; text-decoration-style: initial; text-decoration-color: initial;&quot; class=&quot;line&quot;&gt;&lt;span style=&quot;box-sizing: border-box; color: var(--shiki-dark, inherit); --shiki-dark: #ABB2BF; --shiki-light: #24292E;&quot;&gt;&amp;lt;&lt;/span&gt;&lt;span style=&quot;box-sizing: border-box; color: var(--shiki-dark, inherit); --shiki-dark: #E06C75; --shiki-light: #22863A;&quot;&gt;template&lt;/span&gt;&lt;span style=&quot;box-sizing: border-box; color: var(--shiki-dark, inherit); --shiki-dark: #ABB2BF; --shiki-light: #24292E;&quot;&gt;&amp;gt;&lt;br&gt;&lt;/span&gt;&lt;/span&gt;&lt;span style=&quot;color: rgba(235, 235, 245, 0.6); font-family: ui-monospace, Menlo, Monaco, Consolas, &amp;quot;Liberation Mono&amp;quot;, &amp;quot;Courier New&amp;quot;, monospace; font-size: 14px; font-style: normal; font-variant-ligatures: normal; font-variant-caps: normal; font-weight: 400; letter-spacing: normal; orphans: 2; text-align: left; text-indent: 0px; text-transform: none; widows: 2; word-spacing: 0px; -webkit-text-stroke-width: 0px; background-color: rgb(22, 22, 24); text-decoration-thickness: initial; text-decoration-style: initial; text-decoration-color: initial; float: none; display: inline !important;&quot;&gt;&amp;nbsp; &amp;nbsp; &amp;nbsp; 文章的具体内容&lt;br&gt;&lt;/span&gt;&lt;span style=&quot;box-sizing: border-box; color: rgba(235, 235, 245, 0.6); font-family: ui-monospace, Menlo, Monaco, Consolas, &amp;quot;Liberation Mono&amp;quot;, &amp;quot;Courier New&amp;quot;, monospace; font-size: 14px; font-style: normal; font-variant-ligatures: normal; font-variant-caps: normal; font-weight: 400; letter-spacing: normal; orphans: 2; text-align: left; text-indent: 0px; text-transform: none; widows: 2; word-spacing: 0px; -webkit-text-stroke-width: 0px; background-color: rgb(22, 22, 24); text-decoration-thickness: initial; text-decoration-style: initial; text-decoration-color: initial;&quot; class=&quot;line&quot;&gt;&lt;span style=&quot;box-sizing: border-box; color: var(--shiki-dark, inherit); --shiki-dark: #ABB2BF; --shiki-light: #24292E;&quot;&gt;&amp;lt;/&lt;/span&gt;&lt;span style=&quot;box-sizing: border-box; color: var(--shiki-dark, inherit); --shiki-dark: #E06C75; --shiki-light: #22863A;&quot;&gt;template&lt;/span&gt;&lt;span style=&quot;box-sizing: border-box; color: var(--shiki-dark, inherit); --shiki-dark: #ABB2BF; --shiki-light: #24292E;&quot;&gt;&amp;gt;&lt;/span&gt;&lt;/span&gt;" style="text;whiteSpace=wrap;html=1;" vertex="1" parent="1">
                    <mxGeometry x="520" y="1590" width="250" height="100" as="geometry"/>
                </mxCell>
                <mxCell id="45" style="edgeStyle=orthogonalEdgeStyle;html=1;exitX=0.5;exitY=1;exitDx=0;exitDy=0;" edge="1" parent="1" source="43" target="44">
                    <mxGeometry relative="1" as="geometry"/>
                </mxCell>
                <mxCell id="46" value="/frontend" style="edgeLabel;html=1;align=center;verticalAlign=middle;resizable=0;points=[];" vertex="1" connectable="0" parent="45">
                    <mxGeometry x="-0.1732" y="-2" relative="1" as="geometry">
                        <mxPoint as="offset"/>
                    </mxGeometry>
                </mxCell>
                <mxCell id="43" value="&lt;span style=&quot;box-sizing: border-box; color: rgba(235, 235, 245, 0.6); font-family: ui-monospace, Menlo, Monaco, Consolas, &amp;quot;Liberation Mono&amp;quot;, &amp;quot;Courier New&amp;quot;, monospace; font-size: 14px; font-style: normal; font-variant-ligatures: normal; font-variant-caps: normal; font-weight: 400; letter-spacing: normal; orphans: 2; text-align: left; text-indent: 0px; text-transform: none; widows: 2; word-spacing: 0px; -webkit-text-stroke-width: 0px; background-color: rgb(22, 22, 24); text-decoration-thickness: initial; text-decoration-style: initial; text-decoration-color: initial;&quot; class=&quot;line&quot;&gt;&lt;span style=&quot;box-sizing: border-box; color: var(--shiki-dark, inherit); --shiki-dark: #7F848E; --shiki-light: #6A737D; --shiki-dark-font-style: italic; --shiki-light-font-style: inherit;&quot;&gt;&amp;lt;!-- App.vue --&amp;gt;&amp;nbsp;&lt;/span&gt;&lt;/span&gt;&lt;span style=&quot;color: rgba(235, 235, 245, 0.6); font-family: ui-monospace, Menlo, Monaco, Consolas, &amp;quot;Liberation Mono&amp;quot;, &amp;quot;Courier New&amp;quot;, monospace; font-size: 14px; font-style: normal; font-variant-ligatures: normal; font-variant-caps: normal; font-weight: 400; letter-spacing: normal; orphans: 2; text-align: left; text-indent: 0px; text-transform: none; widows: 2; word-spacing: 0px; -webkit-text-stroke-width: 0px; background-color: rgb(22, 22, 24); text-decoration-thickness: initial; text-decoration-style: initial; text-decoration-color: initial; float: none; display: inline !important;&quot;&gt;&lt;br&gt;&lt;/span&gt;&lt;span style=&quot;box-sizing: border-box; color: rgba(235, 235, 245, 0.6); font-family: ui-monospace, Menlo, Monaco, Consolas, &amp;quot;Liberation Mono&amp;quot;, &amp;quot;Courier New&amp;quot;, monospace; font-size: 14px; font-style: normal; font-variant-ligatures: normal; font-variant-caps: normal; font-weight: 400; letter-spacing: normal; orphans: 2; text-align: left; text-indent: 0px; text-transform: none; widows: 2; word-spacing: 0px; -webkit-text-stroke-width: 0px; background-color: rgb(22, 22, 24); text-decoration-thickness: initial; text-decoration-style: initial; text-decoration-color: initial;&quot; class=&quot;line&quot;&gt;&lt;span style=&quot;box-sizing: border-box; color: var(--shiki-dark, inherit); --shiki-dark: #ABB2BF; --shiki-light: #24292E;&quot;&gt;&amp;lt;&lt;/span&gt;&lt;span style=&quot;box-sizing: border-box; color: var(--shiki-dark, inherit); --shiki-dark: #E06C75; --shiki-light: #22863A;&quot;&gt;template&lt;/span&gt;&lt;span style=&quot;box-sizing: border-box; color: var(--shiki-dark, inherit); --shiki-dark: #ABB2BF; --shiki-light: #24292E;&quot;&gt;&amp;gt;&lt;/span&gt;&lt;/span&gt;&lt;span style=&quot;color: rgba(235, 235, 245, 0.6); font-family: ui-monospace, Menlo, Monaco, Consolas, &amp;quot;Liberation Mono&amp;quot;, &amp;quot;Courier New&amp;quot;, monospace; font-size: 14px; font-style: normal; font-variant-ligatures: normal; font-variant-caps: normal; font-weight: 400; letter-spacing: normal; orphans: 2; text-align: left; text-indent: 0px; text-transform: none; widows: 2; word-spacing: 0px; -webkit-text-stroke-width: 0px; background-color: rgb(22, 22, 24); text-decoration-thickness: initial; text-decoration-style: initial; text-decoration-color: initial; float: none; display: inline !important;&quot;&gt;&lt;br&gt;&lt;/span&gt;&lt;span style=&quot;box-sizing: border-box; color: rgba(235, 235, 245, 0.6); font-family: ui-monospace, Menlo, Monaco, Consolas, &amp;quot;Liberation Mono&amp;quot;, &amp;quot;Courier New&amp;quot;, monospace; font-size: 14px; font-style: normal; font-variant-ligatures: normal; font-variant-caps: normal; font-weight: 400; letter-spacing: normal; orphans: 2; text-align: left; text-indent: 0px; text-transform: none; widows: 2; word-spacing: 0px; -webkit-text-stroke-width: 0px; background-color: rgb(22, 22, 24); text-decoration-thickness: initial; text-decoration-style: initial; text-decoration-color: initial;&quot; class=&quot;line&quot;&gt;&lt;span style=&quot;box-sizing: border-box; color: var(--shiki-dark, inherit); --shiki-dark: #ABB2BF; --shiki-light: #24292E;&quot;&gt;&amp;nbsp; &amp;nbsp; &amp;lt;&lt;/span&gt;&lt;span style=&quot;box-sizing: border-box; color: var(--shiki-dark, inherit); --shiki-dark: #E06C75; --shiki-light: #22863A;&quot;&gt;router-view&lt;/span&gt;&lt;span style=&quot;box-sizing: border-box; color: var(--shiki-dark, inherit); --shiki-dark: #ABB2BF; --shiki-light: #24292E;&quot;&gt; /&amp;gt;&lt;/span&gt;&lt;/span&gt;&lt;span style=&quot;color: rgba(235, 235, 245, 0.6); font-family: ui-monospace, Menlo, Monaco, Consolas, &amp;quot;Liberation Mono&amp;quot;, &amp;quot;Courier New&amp;quot;, monospace; font-size: 14px; font-style: normal; font-variant-ligatures: normal; font-variant-caps: normal; font-weight: 400; letter-spacing: normal; orphans: 2; text-align: left; text-indent: 0px; text-transform: none; widows: 2; word-spacing: 0px; -webkit-text-stroke-width: 0px; background-color: rgb(22, 22, 24); text-decoration-thickness: initial; text-decoration-style: initial; text-decoration-color: initial; float: none; display: inline !important;&quot;&gt;&lt;br&gt;&lt;/span&gt;&lt;span style=&quot;box-sizing: border-box; color: rgba(235, 235, 245, 0.6); font-family: ui-monospace, Menlo, Monaco, Consolas, &amp;quot;Liberation Mono&amp;quot;, &amp;quot;Courier New&amp;quot;, monospace; font-size: 14px; font-style: normal; font-variant-ligatures: normal; font-variant-caps: normal; font-weight: 400; letter-spacing: normal; orphans: 2; text-align: left; text-indent: 0px; text-transform: none; widows: 2; word-spacing: 0px; -webkit-text-stroke-width: 0px; background-color: rgb(22, 22, 24); text-decoration-thickness: initial; text-decoration-style: initial; text-decoration-color: initial;&quot; class=&quot;line&quot;&gt;&lt;span style=&quot;box-sizing: border-box; color: var(--shiki-dark, inherit); --shiki-dark: #ABB2BF; --shiki-light: #24292E;&quot;&gt;&amp;lt;/&lt;/span&gt;&lt;span style=&quot;box-sizing: border-box; color: var(--shiki-dark, inherit); --shiki-dark: #E06C75; --shiki-light: #22863A;&quot;&gt;template&lt;/span&gt;&lt;span style=&quot;box-sizing: border-box; color: var(--shiki-dark, inherit); --shiki-dark: #ABB2BF; --shiki-light: #24292E;&quot;&gt;&amp;gt;&lt;/span&gt;&lt;/span&gt;" style="text;whiteSpace=wrap;html=1;" vertex="1" parent="1">
                    <mxGeometry x="40" y="1730" width="250" height="80" as="geometry"/>
                </mxCell>
                <mxCell id="50" value="/frontend/vblogs/:id" style="edgeStyle=orthogonalEdgeStyle;html=1;exitX=0.5;exitY=1;exitDx=0;exitDy=0;entryX=0.457;entryY=-0.044;entryDx=0;entryDy=0;entryPerimeter=0;" edge="1" parent="1" source="44" target="48">
                    <mxGeometry x="0.0104" relative="1" as="geometry">
                        <mxPoint as="offset"/>
                    </mxGeometry>
                </mxCell>
                <mxCell id="44" value="Frontend Layout Component" style="rounded=0;whiteSpace=wrap;html=1;" vertex="1" parent="1">
                    <mxGeometry x="60" y="1860" width="210" height="60" as="geometry"/>
                </mxCell>
                <mxCell id="47" value="&lt;span style=&quot;box-sizing: border-box; color: rgba(235, 235, 245, 0.6); font-family: ui-monospace, Menlo, Monaco, Consolas, &amp;quot;Liberation Mono&amp;quot;, &amp;quot;Courier New&amp;quot;, monospace; font-size: 14px; font-style: normal; font-variant-ligatures: normal; font-variant-caps: normal; font-weight: 400; letter-spacing: normal; orphans: 2; text-align: left; text-indent: 0px; text-transform: none; widows: 2; word-spacing: 0px; -webkit-text-stroke-width: 0px; background-color: rgb(22, 22, 24); text-decoration-thickness: initial; text-decoration-style: initial; text-decoration-color: initial;&quot; class=&quot;line&quot;&gt;&lt;span style=&quot;box-sizing: border-box; color: var(--shiki-dark, inherit); --shiki-dark: #7F848E; --shiki-light: #6A737D; --shiki-dark-font-style: italic; --shiki-light-font-style: inherit;&quot;&gt;&amp;lt;!-- FrontendLayout.vue --&amp;gt;&amp;nbsp;&lt;/span&gt;&lt;/span&gt;&lt;span style=&quot;color: rgba(235, 235, 245, 0.6); font-family: ui-monospace, Menlo, Monaco, Consolas, &amp;quot;Liberation Mono&amp;quot;, &amp;quot;Courier New&amp;quot;, monospace; font-size: 14px; font-style: normal; font-variant-ligatures: normal; font-variant-caps: normal; font-weight: 400; letter-spacing: normal; orphans: 2; text-align: left; text-indent: 0px; text-transform: none; widows: 2; word-spacing: 0px; -webkit-text-stroke-width: 0px; background-color: rgb(22, 22, 24); text-decoration-thickness: initial; text-decoration-style: initial; text-decoration-color: initial; float: none; display: inline !important;&quot;&gt;&lt;br&gt;&lt;/span&gt;&lt;span style=&quot;box-sizing: border-box; color: rgba(235, 235, 245, 0.6); font-family: ui-monospace, Menlo, Monaco, Consolas, &amp;quot;Liberation Mono&amp;quot;, &amp;quot;Courier New&amp;quot;, monospace; font-size: 14px; font-style: normal; font-variant-ligatures: normal; font-variant-caps: normal; font-weight: 400; letter-spacing: normal; orphans: 2; text-align: left; text-indent: 0px; text-transform: none; widows: 2; word-spacing: 0px; -webkit-text-stroke-width: 0px; background-color: rgb(22, 22, 24); text-decoration-thickness: initial; text-decoration-style: initial; text-decoration-color: initial;&quot; class=&quot;line&quot;&gt;&lt;span style=&quot;box-sizing: border-box; color: var(--shiki-dark, inherit); --shiki-dark: #ABB2BF; --shiki-light: #24292E;&quot;&gt;&amp;lt;&lt;/span&gt;&lt;span style=&quot;box-sizing: border-box; color: var(--shiki-dark, inherit); --shiki-dark: #E06C75; --shiki-light: #22863A;&quot;&gt;template&lt;/span&gt;&lt;span style=&quot;box-sizing: border-box; color: var(--shiki-dark, inherit); --shiki-dark: #ABB2BF; --shiki-light: #24292E;&quot;&gt;&amp;gt;&lt;br&gt;&lt;/span&gt;&lt;/span&gt;&lt;span style=&quot;color: rgba(235, 235, 245, 0.6); font-family: ui-monospace, Menlo, Monaco, Consolas, &amp;quot;Liberation Mono&amp;quot;, &amp;quot;Courier New&amp;quot;, monospace; font-size: 14px; font-style: normal; font-variant-ligatures: normal; font-variant-caps: normal; font-weight: 400; letter-spacing: normal; orphans: 2; text-align: left; text-indent: 0px; text-transform: none; widows: 2; word-spacing: 0px; -webkit-text-stroke-width: 0px; background-color: rgb(22, 22, 24); text-decoration-thickness: initial; text-decoration-style: initial; text-decoration-color: initial; float: none; display: inline !important;&quot;&gt;&amp;nbsp; &amp;nbsp; 顶部导航&lt;br&gt;&amp;nbsp; &amp;nbsp; 内容页面(RouterView)&lt;br&gt;&lt;/span&gt;&lt;span style=&quot;box-sizing: border-box; color: rgba(235, 235, 245, 0.6); font-family: ui-monospace, Menlo, Monaco, Consolas, &amp;quot;Liberation Mono&amp;quot;, &amp;quot;Courier New&amp;quot;, monospace; font-size: 14px; font-style: normal; font-variant-ligatures: normal; font-variant-caps: normal; font-weight: 400; letter-spacing: normal; orphans: 2; text-align: left; text-indent: 0px; text-transform: none; widows: 2; word-spacing: 0px; -webkit-text-stroke-width: 0px; background-color: rgb(22, 22, 24); text-decoration-thickness: initial; text-decoration-style: initial; text-decoration-color: initial;&quot; class=&quot;line&quot;&gt;&lt;span style=&quot;box-sizing: border-box; color: var(--shiki-dark, inherit); --shiki-dark: #ABB2BF; --shiki-light: #24292E;&quot;&gt;&amp;nbsp; &amp;nbsp; &amp;lt;&lt;/span&gt;&lt;span style=&quot;box-sizing: border-box; color: var(--shiki-dark, inherit); --shiki-dark: #E06C75; --shiki-light: #22863A;&quot;&gt;router-view&lt;/span&gt;&lt;span style=&quot;box-sizing: border-box; color: var(--shiki-dark, inherit); --shiki-dark: #ABB2BF; --shiki-light: #24292E;&quot;&gt; /&amp;gt;&lt;/span&gt;&lt;/span&gt;&lt;span style=&quot;color: rgba(235, 235, 245, 0.6); font-family: ui-monospace, Menlo, Monaco, Consolas, &amp;quot;Liberation Mono&amp;quot;, &amp;quot;Courier New&amp;quot;, monospace; font-size: 14px; font-style: normal; font-variant-ligatures: normal; font-variant-caps: normal; font-weight: 400; letter-spacing: normal; orphans: 2; text-align: left; text-indent: 0px; text-transform: none; widows: 2; word-spacing: 0px; -webkit-text-stroke-width: 0px; background-color: rgb(22, 22, 24); text-decoration-thickness: initial; text-decoration-style: initial; text-decoration-color: initial; float: none; display: inline !important;&quot;&gt;&lt;br&gt;&lt;/span&gt;&lt;span style=&quot;box-sizing: border-box; color: rgba(235, 235, 245, 0.6); font-family: ui-monospace, Menlo, Monaco, Consolas, &amp;quot;Liberation Mono&amp;quot;, &amp;quot;Courier New&amp;quot;, monospace; font-size: 14px; font-style: normal; font-variant-ligatures: normal; font-variant-caps: normal; font-weight: 400; letter-spacing: normal; orphans: 2; text-align: left; text-indent: 0px; text-transform: none; widows: 2; word-spacing: 0px; -webkit-text-stroke-width: 0px; background-color: rgb(22, 22, 24); text-decoration-thickness: initial; text-decoration-style: initial; text-decoration-color: initial;&quot; class=&quot;line&quot;&gt;&lt;span style=&quot;box-sizing: border-box; color: var(--shiki-dark, inherit); --shiki-dark: #ABB2BF; --shiki-light: #24292E;&quot;&gt;&amp;lt;/&lt;/span&gt;&lt;span style=&quot;box-sizing: border-box; color: var(--shiki-dark, inherit); --shiki-dark: #E06C75; --shiki-light: #22863A;&quot;&gt;template&lt;/span&gt;&lt;span style=&quot;box-sizing: border-box; color: var(--shiki-dark, inherit); --shiki-dark: #ABB2BF; --shiki-light: #24292E;&quot;&gt;&amp;gt;&lt;/span&gt;&lt;/span&gt;" style="text;whiteSpace=wrap;html=1;" vertex="1" parent="1">
                    <mxGeometry x="310" y="1820" width="250" height="150" as="geometry"/>
                </mxCell>
                <mxCell id="48" value="文章Page页面" style="rounded=0;whiteSpace=wrap;html=1;" vertex="1" parent="1">
                    <mxGeometry x="65" y="1980" width="210" height="60" as="geometry"/>
                </mxCell>
                <mxCell id="49" value="&lt;span style=&quot;box-sizing: border-box; color: rgba(235, 235, 245, 0.6); font-family: ui-monospace, Menlo, Monaco, Consolas, &amp;quot;Liberation Mono&amp;quot;, &amp;quot;Courier New&amp;quot;, monospace; font-size: 14px; font-style: normal; font-variant-ligatures: normal; font-variant-caps: normal; font-weight: 400; letter-spacing: normal; orphans: 2; text-align: left; text-indent: 0px; text-transform: none; widows: 2; word-spacing: 0px; -webkit-text-stroke-width: 0px; background-color: rgb(22, 22, 24); text-decoration-thickness: initial; text-decoration-style: initial; text-decoration-color: initial;&quot; class=&quot;line&quot;&gt;&lt;span style=&quot;box-sizing: border-box; color: var(--shiki-dark, inherit); --shiki-dark: #7F848E; --shiki-light: #6A737D; --shiki-dark-font-style: italic; --shiki-light-font-style: inherit;&quot;&gt;&amp;lt;!-- FrontendLayout.vue --&amp;gt;&amp;nbsp;&lt;/span&gt;&lt;/span&gt;&lt;span style=&quot;color: rgba(235, 235, 245, 0.6); font-family: ui-monospace, Menlo, Monaco, Consolas, &amp;quot;Liberation Mono&amp;quot;, &amp;quot;Courier New&amp;quot;, monospace; font-size: 14px; font-style: normal; font-variant-ligatures: normal; font-variant-caps: normal; font-weight: 400; letter-spacing: normal; orphans: 2; text-align: left; text-indent: 0px; text-transform: none; widows: 2; word-spacing: 0px; -webkit-text-stroke-width: 0px; background-color: rgb(22, 22, 24); text-decoration-thickness: initial; text-decoration-style: initial; text-decoration-color: initial; float: none; display: inline !important;&quot;&gt;&lt;br&gt;&lt;/span&gt;&lt;span style=&quot;box-sizing: border-box; color: rgba(235, 235, 245, 0.6); font-family: ui-monospace, Menlo, Monaco, Consolas, &amp;quot;Liberation Mono&amp;quot;, &amp;quot;Courier New&amp;quot;, monospace; font-size: 14px; font-style: normal; font-variant-ligatures: normal; font-variant-caps: normal; font-weight: 400; letter-spacing: normal; orphans: 2; text-align: left; text-indent: 0px; text-transform: none; widows: 2; word-spacing: 0px; -webkit-text-stroke-width: 0px; background-color: rgb(22, 22, 24); text-decoration-thickness: initial; text-decoration-style: initial; text-decoration-color: initial;&quot; class=&quot;line&quot;&gt;&lt;span style=&quot;box-sizing: border-box; color: var(--shiki-dark, inherit); --shiki-dark: #ABB2BF; --shiki-light: #24292E;&quot;&gt;&amp;lt;&lt;/span&gt;&lt;span style=&quot;box-sizing: border-box; color: var(--shiki-dark, inherit); --shiki-dark: #E06C75; --shiki-light: #22863A;&quot;&gt;template&lt;/span&gt;&lt;span style=&quot;box-sizing: border-box; color: var(--shiki-dark, inherit); --shiki-dark: #ABB2BF; --shiki-light: #24292E;&quot;&gt;&amp;gt;&lt;br&gt;&lt;/span&gt;&lt;/span&gt;&lt;span style=&quot;color: rgba(235, 235, 245, 0.6); font-family: ui-monospace, Menlo, Monaco, Consolas, &amp;quot;Liberation Mono&amp;quot;, &amp;quot;Courier New&amp;quot;, monospace; font-size: 14px; font-style: normal; font-variant-ligatures: normal; font-variant-caps: normal; font-weight: 400; letter-spacing: normal; orphans: 2; text-align: left; text-indent: 0px; text-transform: none; widows: 2; word-spacing: 0px; -webkit-text-stroke-width: 0px; background-color: rgb(22, 22, 24); text-decoration-thickness: initial; text-decoration-style: initial; text-decoration-color: initial; float: none; display: inline !important;&quot;&gt;&amp;nbsp; &amp;nbsp;文章列表页/文章详情页&lt;br&gt;&lt;/span&gt;&lt;span style=&quot;box-sizing: border-box; color: rgba(235, 235, 245, 0.6); font-family: ui-monospace, Menlo, Monaco, Consolas, &amp;quot;Liberation Mono&amp;quot;, &amp;quot;Courier New&amp;quot;, monospace; font-size: 14px; font-style: normal; font-variant-ligatures: normal; font-variant-caps: normal; font-weight: 400; letter-spacing: normal; orphans: 2; text-align: left; text-indent: 0px; text-transform: none; widows: 2; word-spacing: 0px; -webkit-text-stroke-width: 0px; background-color: rgb(22, 22, 24); text-decoration-thickness: initial; text-decoration-style: initial; text-decoration-color: initial;&quot; class=&quot;line&quot;&gt;&lt;span style=&quot;box-sizing: border-box; color: var(--shiki-dark, inherit); --shiki-dark: #ABB2BF; --shiki-light: #24292E;&quot;&gt;&amp;lt;/&lt;/span&gt;&lt;span style=&quot;box-sizing: border-box; color: var(--shiki-dark, inherit); --shiki-dark: #E06C75; --shiki-light: #22863A;&quot;&gt;template&lt;/span&gt;&lt;span style=&quot;box-sizing: border-box; color: var(--shiki-dark, inherit); --shiki-dark: #ABB2BF; --shiki-light: #24292E;&quot;&gt;&amp;gt;&lt;/span&gt;&lt;/span&gt;" style="text;whiteSpace=wrap;html=1;" vertex="1" parent="1">
                    <mxGeometry x="310" y="1980" width="250" height="90" as="geometry"/>
                </mxCell>
            </root>
        </mxGraphModel>
    </diagram>
</mxfile>