module gitlab.com/go-course-project/go15/devcloud-mini/cmdb

go 1.22.0

require (
	github.com/emicklei/go-restful-openapi/v2 v2.10.2
	github.com/emicklei/go-restful/v3 v3.12.1
	github.com/google/uuid v1.6.0
	github.com/infraboard/mcube/v2 v2.0.27
	github.com/rs/zerolog v1.33.0
	github.com/tencentcloud/tencentcloud-sdk-go/tencentcloud/common v1.0.993
	github.com/tencentcloud/tencentcloud-sdk-go/tencentcloud/lighthouse v1.0.991
	gitlab.com/go-course-project/go15/devcloud-mini/maudit v0.0.0-20240831040605-d0a47e9522ce
	go.mongodb.org/mongo-driver v1.14.0
)

require (
	github.com/BurntSushi/toml v1.3.2 // indirect
	github.com/caarlos0/env/v6 v6.10.1 // indirect
	github.com/cenkalti/backoff/v4 v4.2.1 // indirect
	github.com/dustin/go-humanize v1.0.1 // indirect
	github.com/go-logr/logr v1.4.1 // indirect
	github.com/go-logr/stdr v1.2.2 // indirect
	github.com/go-openapi/jsonpointer v0.21.0 // indirect
	github.com/go-openapi/jsonreference v0.21.0 // indirect
	github.com/go-openapi/spec v0.21.0 // indirect
	github.com/go-openapi/swag v0.23.0 // indirect
	github.com/golang/snappy v0.0.1 // indirect
	github.com/grpc-ecosystem/grpc-gateway/v2 v2.19.0 // indirect
	github.com/inconshreveable/mousetrap v1.1.0 // indirect
	github.com/josharian/intern v1.0.0 // indirect
	github.com/klauspost/compress v1.15.9 // indirect
	github.com/mailru/easyjson v0.7.7 // indirect
	github.com/mattn/go-colorable v0.1.13 // indirect
	github.com/mattn/go-isatty v0.0.20 // indirect
	github.com/montanaflynn/stats v0.0.0-20171201202039-1bf9dbcd8cbe // indirect
	github.com/pierrec/lz4/v4 v4.1.15 // indirect
	github.com/pkg/errors v0.9.1 // indirect
	github.com/rs/xid v1.5.0 // indirect
	github.com/segmentio/kafka-go v0.4.47 // indirect
	github.com/spf13/cobra v1.8.0 // indirect
	github.com/spf13/pflag v1.0.5 // indirect
	github.com/xdg-go/pbkdf2 v1.0.0 // indirect
	github.com/xdg-go/scram v1.1.2 // indirect
	github.com/xdg-go/stringprep v1.0.4 // indirect
	github.com/youmark/pkcs8 v0.0.0-20181117223130-1be2e3e5546d // indirect
	go.opentelemetry.io/contrib/instrumentation/github.com/emicklei/go-restful/otelrestful v0.49.0 // indirect
	go.opentelemetry.io/contrib/instrumentation/go.mongodb.org/mongo-driver/mongo/otelmongo v0.49.0 // indirect
	go.opentelemetry.io/contrib/instrumentation/google.golang.org/grpc/otelgrpc v0.49.0 // indirect
	go.opentelemetry.io/otel v1.24.0 // indirect
	go.opentelemetry.io/otel/exporters/otlp/otlptrace v1.24.0 // indirect
	go.opentelemetry.io/otel/exporters/otlp/otlptrace/otlptracehttp v1.24.0 // indirect
	go.opentelemetry.io/otel/metric v1.24.0 // indirect
	go.opentelemetry.io/otel/sdk v1.24.0 // indirect
	go.opentelemetry.io/otel/trace v1.24.0 // indirect
	go.opentelemetry.io/proto/otlp v1.1.0 // indirect
	golang.org/x/crypto v0.23.0 // indirect
	golang.org/x/net v0.23.0 // indirect
	golang.org/x/sync v0.6.0 // indirect
	golang.org/x/sys v0.20.0 // indirect
	golang.org/x/text v0.15.0 // indirect
	google.golang.org/genproto/googleapis/api v0.0.0-20240227224415-6ceb2ff114de // indirect
	google.golang.org/genproto/googleapis/rpc v0.0.0-20240227224415-6ceb2ff114de // indirect
	google.golang.org/grpc v1.63.2 // indirect
	google.golang.org/protobuf v1.33.0 // indirect
	gopkg.in/natefinch/lumberjack.v2 v2.2.1 // indirect
	gopkg.in/yaml.v3 v3.0.1 // indirect
	sigs.k8s.io/yaml v1.4.0 // indirect
)
